\relax 
\bibstyle{ifacconf}
\citation{Mehrabi2000}
\citation{KOREN1999527}
\citation{Bi2008}
\citation{Son2001}
\citation{gamberi2008analytical}
\citation{Tolio2008}
\citation{Becker2006}
\citation{Demir2014}
\citation{Wazed2010}
\citation{Birge1997}
\citation{Ben-Tal2000}
\citation{Bertsimas2011}
\citation{Renna2010}
\citation{Asl2003}
\newlabel{footnoteinfo}{{\hbox {$\star $}\relax }{1}}
\newlabel{First}{{*\relax }{1}}
\newlabel{Second}{{**\relax }{1}}
\global\@namedef{n@author@}{2}
\global\@namedef{n@collab@}{0}
\@writefile{toc}{\contentsline {section}{\numberline {1}Introduction}{1}}
\newlabel{sec_intro}{{1}{1}}
\citation{recam}
\@writefile{toc}{\contentsline {section}{\numberline {2}Problem Statement}{2}}
\newlabel{sec_description}{{2}{2}}
\newlabel{fig:scenariotree}{{2}{2}}
\@writefile{lof}{\contentsline {figure}{\numberline {1}{\ignorespaces Scenario Tree in the case with three time periods and five scenarios.}}{2}}
\@writefile{toc}{\contentsline {subsection}{\numberline {2.1}The ReCaM Approach}{2}}
\newlabel{sec_ReCaM}{{2.1}{2}}
\newlabel{fig_mosmodules}{{2.1}{3}}
\@writefile{lof}{\contentsline {figure}{\numberline {2}{\ignorespaces Correspondence between MOs and Modules as part of a production system}}{3}}
\@writefile{toc}{\contentsline {subsection}{\numberline {2.2}Single-Period, Single-Scenario sub-problem}{3}}
\newlabel{sec_singlep}{{2.2}{3}}
\@writefile{toc}{\contentsline {subsection}{\numberline {2.3}Multi-Period Multi-Scenario sub-problem}{3}}
\newlabel{sec_mltip}{{2.3}{3}}
\newlabel{fig_mos}{{2.3}{3}}
\@writefile{lof}{\contentsline {figure}{\numberline {3}{\ignorespaces The 2-stations production system used in the case-study (in the third period, a third station has been added to the system)}}{3}}
\@writefile{lot}{\contentsline {table}{\numberline {1}{\ignorespaces Notation}}{4}}
\newlabel{tab:notation}{{1}{4}}
\@writefile{toc}{\contentsline {section}{\numberline {3}Modeling Approach}{4}}
\newlabel{sec_modelformulation}{{3}{4}}
\@writefile{toc}{\contentsline {subsection}{\numberline {3.1}Assumptions and notation}{4}}
\newlabel{sec_assnot}{{3.1}{4}}
\@writefile{toc}{\contentsline {subsection}{\numberline {3.2}Decision Variables}{4}}
\@writefile{toc}{\contentsline {subsection}{\numberline {3.3}Non-linear quantities of the model}{5}}
\@writefile{toc}{\contentsline {subsection}{\numberline {3.4}Constraints}{5}}
\@writefile{toc}{\contentsline {subsection}{\numberline {3.5}Objective Function}{5}}
\newlabel{sec_of}{{3.5}{5}}
\@writefile{toc}{\contentsline {subsubsection}{\numberline {3.5.1}Single-scenario}{5}}
\newlabel{laprima}{{3}{5}}
\newlabel{zero}{{4}{5}}
\newlabel{due}{{5}{5}}
\newlabel{tre}{{6}{5}}
\newlabel{quattro}{{7}{5}}
\newlabel{sec_recactions}{{3.5.2}{5}}
\@writefile{toc}{\contentsline {subsubsection}{\numberline {3.5.2}Reconfiguration between scenarios}{5}}
\newlabel{eq_pathcost}{{8}{6}}
\newlabel{eq_min}{{9}{6}}
\@writefile{toc}{\contentsline {section}{\numberline {4}Solution Approach}{6}}
\newlabel{sec:problemresolution}{{4}{6}}
\@writefile{toc}{\contentsline {section}{\numberline {5}Real Case Study}{6}}
\newlabel{sec_results}{{5}{6}}
\bibstyle{unsrt}
\bibdata{bibl,recsys,alb,tolio,ReCaM}
\bibcite{Asl2003}{{1}{2003}{{Asl and Ulsoy}}{{}}}
\bibcite{Becker2006}{{2}{2006}{{Becker and Scholl}}{{}}}
\bibcite{Ben-Tal2000}{{3}{2000}{{Ben-Tal and Nemirovski}}{{}}}
\bibcite{Bertsimas2011}{{4}{2011}{{Bertsimas et~al.}}{{Bertsimas, Brown, and Caramanis}}}
\bibcite{Bi2008}{{5}{2008}{{Bi et~al.}}{{Bi, Lang, Shen, and Wang}}}
\bibcite{Birge1997}{{6}{1997}{{Birge and Louveaux.}}{{}}}
\bibcite{Buzacott2005}{{7}{2000}{{Buzacott and Kahyaoglu}}{{}}}
\bibcite{Demir2014}{{8}{2014}{{Demir et~al.}}{{Demir, Tunali, and Eliiyi}}}
\bibcite{gamberi2008analytical}{{9}{2008}{{Gamberi et~al.}}{{Gamberi, Gamberini, Manzini, and Regattieri}}}
\bibcite{KOREN1999527}{{10}{1999}{{Koren et~al.}}{{Koren, Heisel, Jovane, Moriwaki, Pritschow, Ulsoy, and Brussel}}}
\bibcite{Mehrabi2000}{{11}{2000}{{Mehrabi et~al.}}{{Mehrabi, Ulsoy, and Koren}}}
\bibcite{Renna2010}{{12}{2010}{{Renna}}{{}}}
\bibcite{Son2001}{{13}{2001}{{Son et~al.}}{{Son, Olsen, and Yip‐Hoi}}}
\bibcite{Tolio2008}{{14}{2008}{{Tolio}}{{}}}
\bibcite{recam}{{15}{2015-2018}{{\texttt  {http://recam-project.eu/}}}{{}}}
\bibcite{Wazed2010}{{16}{2010}{{Wazed et~al.}}{{Wazed, Ahmed, and Nukman}}}
\@writefile{lot}{\contentsline {table}{\numberline {2}{\ignorespaces Solutions comparison in terms of total expected cost}}{7}}
\newlabel{tab_solutions}{{2}{7}}
\newlabel{fig:nuvola}{{5}{7}}
\@writefile{lof}{\contentsline {figure}{\numberline {4}{\ignorespaces Results when applying the FSEP to a case-study.}}{7}}
\@writefile{toc}{\contentsline {section}{\numberline {6}Conclusions and Future Research}{7}}
\newlabel{sec_conclusions}{{6}{7}}
\@writefile{toc}{\contentsline {section}{\numberline {A}Reconfiguration actions: terms of the objective function}{8}}
\newlabel{app_of}{{A}{8}}
\global\c@lastpage=8
\global\NAT@numbersfalse
