\relax 
\bibstyle{ifacconf}
\citation{recam}
\citation{Mehrabi2000}
\citation{KOREN1999527}
\citation{Bi2008}
\citation{Becker2006}
\citation{Demir2014}
\citation{Tolio2008}
\citation{Birge1997}
\newlabel{footnoteinfo}{{\hbox {$\star $}\relax }{1}}
\newlabel{First}{{*\relax }{1}}
\newlabel{Second}{{**\relax }{1}}
\global\@namedef{n@author@}{2}
\global\@namedef{n@collab@}{0}
\@writefile{toc}{\contentsline {section}{\numberline {1}Introduction}{1}}
\newlabel{sec_intro}{{1}{1}}
\@writefile{toc}{\contentsline {section}{\numberline {2}Problem Description}{1}}
\newlabel{sec_description}{{2}{1}}
\newlabel{fig:scenariotree}{{2}{2}}
\@writefile{lof}{\contentsline {figure}{\numberline {1}{\ignorespaces Scenario Tree}}{2}}
\@writefile{toc}{\contentsline {section}{\numberline {3}Model Formulation}{2}}
\newlabel{sec_modelformulation}{{3}{2}}
\bibstyle{unsrt}
\bibdata{bibl,recsys,alb,tolio,recam}
\bibcite{recam}{{1}{}{{rec}}{{}}}
\bibcite{Becker2006}{{2}{2006}{{Becker and Scholl}}{{}}}
\bibcite{Bi2008}{{3}{2008}{{Bi et~al.}}{{Bi, Lang, Shen, and Wang}}}
\bibcite{Birge1997}{{4}{1997}{{Birge and Louveaux.}}{{}}}
\bibcite{Demir2014}{{5}{2014}{{Demir et~al.}}{{Demir, Tunali, and Eliiyi}}}
\bibcite{KOREN1999527}{{6}{1999}{{Koren et~al.}}{{Koren, Heisel, Jovane, Moriwaki, Pritschow, Ulsoy, and Brussel}}}
\bibcite{Mehrabi2000}{{7}{2000}{{Mehrabi et~al.}}{{Mehrabi, Ulsoy, and Koren}}}
\bibcite{Tolio2008}{{8}{2008}{{Tolio}}{{}}}
\newlabel{fig:nuvola}{{4}{3}}
\@writefile{lof}{\contentsline {figure}{\numberline {2}{\ignorespaces Results when applying the FSEP to a case-study with N machines and K buffers. From the graph it can be seen that solutions regarding different system KPIs may not correspond. Moreover, it can be seen that there could be a substantial difference among the solution optimized over all the paths and the optimal solution considering only the first period (single-scenario)}}{3}}
\@writefile{toc}{\contentsline {section}{\numberline {4}Results}{3}}
\newlabel{sec_results}{{4}{3}}
\@writefile{toc}{\contentsline {section}{\numberline {5}Discussions and conclusions}{3}}
\newlabel{sec_conclusions}{{5}{3}}
\global\c@lastpage=3
\global\NAT@numbersfalse
